{
  "iisSettings": {
    "windowsAuthentication": false,
    "anonymousAuthentication": true,
    "iisExpress": {
      "applicationUrl": "http://64.27.26.111:8084/",
      // "applicationUrl": "http://webfeedtest1.informanagement.com/",
      //"applicationUrl": "http://64.27.26.111:8084/",
      "sslPort": 44309
    }
  },
  "$schema": "http://json.schemastore.org/launchsettings.json",
  "profiles": {
    "IIS Express": {
      "commandName": "IISExpress",
      "launchBrowser": true,
      "environmentVariables": {
        "ASPNETCORE_ENVIRONMENT": "Development"
      }
    },
    "Scrole.API": {
      "commandName": "Project",
      "launchBrowser": true,
      "environmentVariables": {
        "ASPNETCORE_ENVIRONMENT": "Development"
      },
       "applicationUrl": "http://localhost:5000/",
      //"applicationUrl": "http://webfeedtest1.informanagement.com/"
      //"applicationUrl": "http://64.27.26.111:8084/"
      
    }
  }
}